INDEX VERSION 1.130+D:\1.TalentSprint\1.FSD\FSD56\10.SpringBoot\springboot\studentWorspace\.metadata\.plugins\org.eclipse.jdt.core
4039811346.index
2758576337.index
3355708150.index
1552878334.index
225292889.index
2006079928.index
1716253636.index
1737575566.index
585472926.index
2071462652.index
3566089501.index
2256529200.index
1227306570.index
2186899505.index
2194716159.index
2063253104.index
2653330038.index
743109110.index
2782998763.index
3852244655.index
4278764599.index
3312165055.index
240115901.index
401767567.index
